6,"Sonny Parallag"
10,"Sonny Parallag"
11,"Sonny Parallag"
25,Developer
27,Developer
29,Developer
35,Developer
36,Developer
37,Developer
38,Developer
28,Developer
34,Developer
40,Developer
41,Developer
43,Developer
45,Developer
46,Developer
49,Developer
51,Developer
52,Developer
53,Developer
44,Developer
47,Developer
54,Developer
55,Developer
56,Developer
57,Developer
58,"Sky Ford"
59,"Sky Ford"
61,"Sky Ford"
63,"Sky Ford"
65,"Sky Ford"
71,"Sky Ford"
72,"Sky Ford"
73,"Sky Ford"
75,"Sky Ford"
76,"Sky Ford"
77,"Sky Ford"
86,"Sky Ford"
87,"Sky Ford"
88,"Sky Ford"
89,"Sky Ford"
91,"Sky Ford"
98,"Sky Ford"
100,"Sky Ford"
132,alarm_monitor
133,alarm_monitor
136,alarm_monitor
138,alarm_monitor
139,alarm_monitor
141,alarm_monitor
142,alarm_monitor
143,alarm_monitor
144,alarm_monitor
145,alarm_monitor
146,alarm_monitor
148,alarm_monitor
150,alarm_monitor
151,alarm_monitor
152,alarm_monitor
153,alarm_monitor
183,alarm_monitor
184,alarm_monitor
185,alarm_monitor
186,alarm_monitor
187,alarm_monitor
188,alarm_monitor
195,alarm_monitor
196,alarm_monitor
201,alarm_monitor
203,alarm_monitor
204,alarm_monitor
206,alarm_monitor
207,alarm_monitor
217,alarm_monitor
218,alarm_monitor
216,alarm_monitor
219,alarm_monitor
221,alarm_monitor
222,alarm_monitor
223,alarm_monitor
231,alarm_monitor
240,"Sky Ford"
261,"Sky Ford"
262,alarm_monitor
246,"Sky Ford"
263,"Sky Ford"
293,Developer
304,Developer
305,Developer
306,Developer
339,Developer
341,Developer
342,Developer
343,Developer
344,Developer
348,Developer
349,Developer
364,Developer
387,Developer
419,Developer
456,Developer
457,Developer
458,Developer
463,Developer
464,Developer
466,Developer
467,Developer
468,Developer
469,Developer
470,Developer
472,Developer
473,Developer
474,Developer
478,Developer
479,Developer
480,Developer
481,Developer
482,Developer
483,Developer
484,Developer
516,Developer
517,Developer
515,Developer
520,Developer
